STA 440 Spring 2026 – Case Study 2
…
Tracks the entire history of revisions for key macroeconomic variables.

Check it out!

What are these data like?

Quarterly GDP growth (year-over-year percent change):

# A tibble: 244 × 10
   DATE    v65Q4 v66Q1 v66Q2 v66Q3 v66Q4 v67Q1 v67Q2 v67Q3 v67Q4
   <chr>   <dbl> <dbl> <dbl> <dbl> <dbl> <dbl> <dbl> <dbl> <dbl>
 1 1965:Q1  5.36  5.40  5.40  5.37  5.37  5.37  5.37  5.32  5.32
 2 1965:Q2  4.43  4.79  4.79  5.14  5.14  5.14  5.14  5.38  5.38
 3 1965:Q3  4.55  5.22  5.22  5.68  5.68  5.68  5.68  5.96  5.96
 4 1965:Q4 NA     6.33  6.79  7.49  7.49  7.49  7.49  7.80  7.80
 5 1966:Q1 NA    NA     6.04  6.70  6.70  6.70  6.70  7.30  7.30
 6 1966:Q2 NA    NA    NA     5.99  5.87  5.87  5.87  6.49  6.49
 7 1966:Q3 NA    NA    NA    NA     5.26  5.13  5.13  5.49  5.49
 8 1966:Q4 NA    NA    NA    NA    NA     4.09  4.12  4.21  4.21
 9 1967:Q1 NA    NA    NA    NA    NA    NA     2.61  2.37  2.37
10 1967:Q2 NA    NA    NA    NA    NA    NA    NA     2.36  2.37
# ℹ 234 more rows
…
# A tibble: 1 × 2
  DATE    v66Q3
  <chr>   <dbl>
1 1965:Q3  5.68

This is our estimate of GDP growth in 1965:Q3 as measured a year later in 1966:Q3.

Columns are vintages

Quarterly GDP growth (year-over-year percent change):

output_growth |>
  select(DATE, v66Q3)

# A tibble: 304 × 2
   DATE    v66Q3
   <chr>   <dbl>
 1 1950:Q1  4.65
 2 1950:Q2  8.06
 3 1950:Q3 11.3 
 4 1950:Q4 14.5 
 5 1951:Q1 10.4 
 6 1951:Q2  9.47
 7 1951:Q3  7.14
 8 1951:Q4  5.03
 9 1952:Q1  4.43
10 1952:Q2  2.12
# ℹ 294 more rows
…
